Make use both of R and Python languages for efficient data science
…
reticulate::py$sst %>% as_tibble()

## # A tibble: 366 x 22
##    day                 `1997` `1998` `1999` `2000` `2001` `2002` `2003` `2004`
##    <dttm>               <dbl>  <dbl>  <dbl>  <dbl>  <dbl>  <dbl>  <dbl>  <dbl>
##  1 1997-01-01 00:00:00   27.8   29.8   29.1   28.3   28.7   28.3    NaN   28.4
##  2 1997-01-02 00:00:00   27.9   29.7   29.2   28.3   28.5   28.4    NaN   28.5
##  3 1997-01-03 00:00:00   27.9   29.5   29.1   28.4   28.5   28.3    NaN   28.5
##  4 1997-01-04 00:00:00   28.0   29.2   29.0   28.6   28.5   28.4    NaN   28.7
##  5 1997-01-05 00:00:00   28.1   28.8   29.0   28.8   28.7   28.6    NaN   28.7
##  6 1997-01-06 00:00:00   28.1   28.7   29.0   28.8   28.6   28.6    NaN   28.8
##  7 1997-01-07 00:00:00   28.1   29.1   29.0   28.8   28.4   28.5    NaN   28.7
##  8 1997-01-08 00:00:00   28.2   29.0   29.0   28.8   28.4   28.0    NaN   28.4
##  9 1997-01-09 00:00:00   28.2   29.0   29.0   28.9   28.3   28.4    NaN   28.1
## 10 1997-01-10 00:00:00   28.2   29.1   28.8   28.9   28.3   28.4    NaN   28.3
## # ... with 356 more rows, and 13 more variables: `2005` <dbl>, `2006` <dbl>,
## #   `2007` <dbl>, `2008` <dbl>, `2009` <dbl>, `2010` <dbl>, `2011` <dbl>,
## #   `2012` <dbl>, `2013` <dbl>, `2014` <dbl>, `2015` <dbl>, `2016` <dbl>,
## #   `2017` <dbl>
…
